
{
    "id": "Supamonks_controllers",
    "name":"Supamonks_controllers",
    "category": "node",
    "color":"#ffb340",
    "inputs": [

    ],
    "outputs": [
      { 
        "portId": "controllers", 
        "name":"controllers",
        "type": "json",
        "properties": {},
        "x": 0,
        "y": 0
      }
    ]
  }
