
{
    "id": "environnement Setup",
    "name":"environnement Setup",
    "category": "node",
    "color":"#ffb340",
    "inputs": [

    ],
    "outputs": [
      { 
        "portId": "env_settings", 
        "name":"env_settings",
        "type": "environnement",
        "properties": {},
        "x": 0,
        "y": 0
      }
    ]
  }
